[gd_scene load_steps=3 format=2]

[ext_resource path="res://BottomLimit.gd" type="Script" id=1]

[sub_resource type="SegmentShape2D" id=1]

[node name="BottomLimit" type="Area2D"]
collision_layer = 2
script = ExtResource( 1 )

[node name="Bottom" type="CollisionShape2D" parent="."]
shape = SubResource( 1 )
